<svg xmlns="http://www.w3.org/2000/svg" xmlns:xlink="http://www.w3.org/1999/xlink" version="1.1" x="0px" y="0px" viewBox="0 0 64 64" style="enable-background:new 0 0 64 64;" xml:space="preserve">
	<path d="M7,24h7v3h-2c-2.757,0-5,2.243-5,5c0,0.552,0.448,1,1,1h18c0.552,0,1-0.448,1-1c0-2.757-2.243-5-5-5h-2v-3h7  c0.695,0,1.374-0.151,2-0.429V39c0,1.654,1.346,3,3,3h8.522c0.585,0.871,1.322,1.628,2.167,2.249C37.73,45.314,34,49.728,34,55v6  c0,0.552,0.448,1,1,1h26c0.552,0,1-0.448,1-1v-6c0-5.272-3.73-9.686-8.689-10.751C55.543,42.609,57,39.975,57,37  c0-4.962-4.038-9-9-9c-0.338,0-0.671,0.022-1,0.059V15c0-1.654-1.346-3-3-3H32V7c0-2.757-2.243-5-5-5H7C4.243,2,2,4.243,2,7v12  C2,21.757,4.243,24,7,24z M24.829,31H9.171c0.413-1.164,1.525-2,2.829-2h3h4h3C23.304,29,24.416,29.836,24.829,31z M18,27h-2v-3h2  V27z M27,22h-8h-4H7c-1.654,0-3-1.346-3-3h25v2.216C28.446,21.724,27.748,22,27,22z M39.519,40H32c-0.551,0-1-0.449-1-1v-2h8  c0,0.28,0.016,0.559,0.042,0.838c0.011,0.121,0.03,0.238,0.046,0.357c0.02,0.149,0.041,0.298,0.068,0.446  c0.028,0.15,0.062,0.297,0.097,0.444c0.027,0.111,0.055,0.221,0.085,0.331c0.045,0.162,0.094,0.321,0.148,0.479  C39.499,39.93,39.507,39.966,39.519,40z M51,46c4.962,0,9,4.038,9,9v5H36v-5c0-4.962,4.038-9,9-9H51z M55,37c0,3.86-3.14,7-7,7  c-2.593,0-4.855-1.42-6.065-3.52c-0.294-0.511-0.519-1.055-0.675-1.616c-0.013-0.046-0.024-0.093-0.036-0.139  c-0.059-0.228-0.104-0.459-0.139-0.692c-0.009-0.062-0.021-0.124-0.029-0.187C41.022,37.565,41,37.283,41,37  c0-0.361,0.036-0.715,0.089-1.063c0.009-0.062,0.017-0.124,0.028-0.185c0.061-0.334,0.144-0.66,0.251-0.978  c0.018-0.055,0.04-0.108,0.06-0.163c0.237-0.649,0.566-1.255,0.977-1.801c0.036-0.049,0.071-0.098,0.109-0.146  c0.204-0.258,0.427-0.501,0.666-0.729c0.041-0.039,0.085-0.077,0.127-0.115c0.819-0.741,1.816-1.3,2.942-1.591  C46.81,30.085,47.395,30,48,30C51.86,30,55,33.14,55,37z M44.354,28.779c-0.037,0.017-0.073,0.036-0.11,0.053  c-0.277,0.128-0.546,0.27-0.807,0.424c-0.126,0.074-0.253,0.148-0.375,0.228c-0.089,0.059-0.176,0.122-0.263,0.184  c-0.137,0.097-0.272,0.197-0.403,0.302c-0.072,0.058-0.144,0.116-0.214,0.176c-0.151,0.128-0.297,0.262-0.439,0.399  c-0.046,0.044-0.093,0.087-0.138,0.132c-0.191,0.193-0.374,0.392-0.546,0.601c0,0.001-0.001,0.001-0.001,0.002  c-0.167,0.203-0.323,0.414-0.472,0.63c-0.041,0.06-0.08,0.122-0.12,0.182c-0.107,0.163-0.208,0.33-0.304,0.5  c-0.041,0.073-0.082,0.145-0.121,0.22c-0.095,0.18-0.183,0.364-0.266,0.551c-0.026,0.059-0.056,0.117-0.081,0.177  c-0.101,0.242-0.192,0.489-0.272,0.741c-0.022,0.069-0.039,0.141-0.059,0.211c-0.049,0.168-0.096,0.337-0.135,0.508H31V21.621V18h14  v10.522c-0.03,0.011-0.059,0.024-0.089,0.035C44.723,28.627,44.536,28.698,44.354,28.779z M44,14c0.551,0,1,0.449,1,1v1H31v-1  c0-0.12,0.03-0.232,0.069-0.339c0.012-0.031,0.024-0.062,0.039-0.092c0.038-0.078,0.088-0.149,0.145-0.214  c0.042-0.047,0.09-0.089,0.141-0.128C31.563,14.092,31.768,14,32,14H44z M7,4h20c1.654,0,3,1.346,3,3v5.775  c-0.007,0.006-0.012,0.015-0.019,0.021c-0.136,0.125-0.259,0.261-0.37,0.409c-0.012,0.016-0.027,0.03-0.039,0.047  c-0.114,0.158-0.212,0.326-0.294,0.504c-0.004,0.009-0.01,0.018-0.015,0.027c-0.08,0.179-0.142,0.366-0.186,0.56  c-0.002,0.011-0.007,0.02-0.01,0.031C29.025,14.577,29,14.785,29,15v2H4V7C4,5.346,5.346,4,7,4z" />
	<rect x="10.298" y="9" transform="matrix(0.7809 -0.6246 0.6246 0.7809 -3.2887 10.6234)" width="6.403" height="2" />
	<rect x="17.298" y="10" transform="matrix(0.7809 -0.6246 0.6246 0.7809 -2.3798 15.2149)" width="6.403" height="2" />
</svg>
