<?xml version="1.0" encoding="UTF-8"?>
<svg width="560px" height="560px" viewBox="0 0 560 560" version="1.1" xmlns="http://www.w3.org/2000/svg" xmlns:xlink="http://www.w3.org/1999/xlink">
    <g id="Artboard" stroke="none" stroke-width="1" fill="none" fill-rule="evenodd">
        <path d="M280,560 C125.36027,560 0,434.63973 0,280 C0,125.36027 125.36027,0 280,0 C434.63973,0 560,125.36027 560,280 C560,434.63973 434.63973,560 280,560 Z" id="Path" fill="#FFFFFF"></path>
        <path d="M280,530 C418.071187,530 530,418.071187 530,280 C530,141.928813 418.071187,30 280,30 C141.928813,30 30,141.928813 30,280 C30,418.071187 141.928813,530 280,530 Z" id="Path" fill="#000000"></path>
        <g id="Sheep-Paths" transform="translate(81.000000, 99.000000)">
            <g id="Group">
                <ellipse id="Face" fill="#FFFFFF" cx="197.93617" cy="200.212766" rx="135.106383" ry="161.702128"></ellipse>
                <ellipse id="Ear-Right" fill="#FFFFFF" transform="translate(347.936170, 181.063830) rotate(135.000000) translate(-347.936170, -181.063830) " cx="347.93617" cy="181.06383" rx="21.2765957" ry="48.9361702"></ellipse>
                <ellipse id="Ear-Left" fill="#FFFFFF" transform="translate(50.063830, 181.063830) scale(-1, 1) rotate(135.000000) translate(-50.063830, -181.063830) " cx="50.0638298" cy="181.06383" rx="21.2765957" ry="48.9361702"></ellipse>
                <path d="M242.971631,0 C272.725813,0 297.852421,19.8868593 305.567532,47.0670998 C332.936728,54.6841296 353.042553,79.6660418 353.042553,109.361702 C353.042553,145.119496 323.889948,174.042553 288.007092,174.042553 L107.865248,174.042553 C71.9823921,174.042553 42.8297872,145.119496 42.8297872,109.361702 C42.8297872,76.7588649 67.0649932,49.8378963 98.5398552,45.341157 C113.616711,17.8764652 142.819289,0 175.41844,0 C188.176231,0 200.553675,2.72859221 211.852727,7.87378991 C221.265302,2.76625821 231.916062,0 242.971631,0 Z" id="Cloud-outer" fill="#000000"></path>
                <path d="M213.006738,31.3250621 C202.260915,24.1725301 189.330818,20 175.41844,20 C146.005356,20 120.982775,38.6499576 111.709153,64.6808511 L107.865248,64.6808511 C82.9928499,64.6808511 62.8297872,84.6851495 62.8297872,109.361702 C62.8297872,134.038255 82.9928499,154.042553 107.865248,154.042553 L288.007092,154.042553 C312.879491,154.042553 333.042553,134.038255 333.042553,109.361702 C333.042553,84.6851495 312.879491,64.6808511 288.007092,64.6808511 C288.007092,40.0042984 267.84403,20 242.971631,20 C231.465559,20 220.967296,24.2809701 213.006738,31.3250621 Z" id="Cloud-inner" fill="#FFFFFF"></path>
                <ellipse id="Eye-Left" fill="#000000" cx="148.811719" cy="219.361702" rx="21.2765957" ry="25.5319149"></ellipse>
                <ellipse id="Eye-Right" fill="#000000" cx="249.188281" cy="219.361702" rx="21.2765957" ry="25.5319149"></ellipse>
            </g>
        </g>
    </g>
</svg>